^E:\REPO\D3D12TUT\COMMON\CAMERA.CPP
/c /I"E:\REPO\VCPKG\INSTALLED\X64-WINDOWS\INCLUDE" /ZI /JMC /nologo /W3 /WX- /diagnostics:column /sdl /Od /D _MBCS /Gm- /EHsc /RTC1 /MDd /GS /fp:precise /permissive- /Zc:wchar_t /Zc:forScope /Zc:inline /Fo"X64\DEBUG\\" /Fd"X64\DEBUG\VC142.PDB" /Gd /TP /FC /DUNICODE  E:\REPO\D3D12TUT\COMMON\CAMERA.CPP
^E:\REPO\D3D12TUT\COMMON\D3DUTIL.CPP
/c /I"E:\REPO\VCPKG\INSTALLED\X64-WINDOWS\INCLUDE" /ZI /JMC /nologo /W3 /WX- /diagnostics:column /sdl /Od /D _MBCS /Gm- /EHsc /RTC1 /MDd /GS /fp:precise /permissive- /Zc:wchar_t /Zc:forScope /Zc:inline /Fo"X64\DEBUG\\" /Fd"X64\DEBUG\VC142.PDB" /Gd /TP /FC /DUNICODE  E:\REPO\D3D12TUT\COMMON\D3DUTIL.CPP
^E:\REPO\D3D12TUT\COMMON\DDSTEXTURELOADER.CPP
/c /I"E:\REPO\VCPKG\INSTALLED\X64-WINDOWS\INCLUDE" /ZI /JMC /nologo /W3 /WX- /diagnostics:column /sdl /Od /D _MBCS /Gm- /EHsc /RTC1 /MDd /GS /fp:precise /permissive- /Zc:wchar_t /Zc:forScope /Zc:inline /Fo"X64\DEBUG\\" /Fd"X64\DEBUG\VC142.PDB" /Gd /TP /FC /DUNICODE  E:\REPO\D3D12TUT\COMMON\DDSTEXTURELOADER.CPP
^E:\REPO\D3D12TUT\COMMON\GAMETIMER.CPP
/c /I"E:\REPO\VCPKG\INSTALLED\X64-WINDOWS\INCLUDE" /ZI /JMC /nologo /W3 /WX- /diagnostics:column /sdl /Od /D _MBCS /Gm- /EHsc /RTC1 /MDd /GS /fp:precise /permissive- /Zc:wchar_t /Zc:forScope /Zc:inline /Fo"X64\DEBUG\\" /Fd"X64\DEBUG\VC142.PDB" /Gd /TP /FC /DUNICODE  E:\REPO\D3D12TUT\COMMON\GAMETIMER.CPP
^E:\REPO\D3D12TUT\COMMON\GEOMETRYGENERATOR.CPP
/c /I"E:\REPO\VCPKG\INSTALLED\X64-WINDOWS\INCLUDE" /ZI /JMC /nologo /W3 /WX- /diagnostics:column /sdl /Od /D _MBCS /Gm- /EHsc /RTC1 /MDd /GS /fp:precise /permissive- /Zc:wchar_t /Zc:forScope /Zc:inline /Fo"X64\DEBUG\\" /Fd"X64\DEBUG\VC142.PDB" /Gd /TP /FC /DUNICODE  E:\REPO\D3D12TUT\COMMON\GEOMETRYGENERATOR.CPP
^E:\REPO\D3D12TUT\COMMON\MATHHELPER.CPP
/c /I"E:\REPO\VCPKG\INSTALLED\X64-WINDOWS\INCLUDE" /ZI /JMC /nologo /W3 /WX- /diagnostics:column /sdl /Od /D _MBCS /Gm- /EHsc /RTC1 /MDd /GS /fp:precise /permissive- /Zc:wchar_t /Zc:forScope /Zc:inline /Fo"X64\DEBUG\\" /Fd"X64\DEBUG\VC142.PDB" /Gd /TP /FC /DUNICODE  E:\REPO\D3D12TUT\COMMON\MATHHELPER.CPP
^E:\REPO\D3D12TUT\COMMON\D3DAPP.CPP
/c /I"E:\REPO\VCPKG\INSTALLED\X64-WINDOWS\INCLUDE" /ZI /JMC /nologo /W3 /WX- /diagnostics:column /sdl /Od /D _MBCS /Gm- /EHsc /RTC1 /MDd /GS /fp:precise /permissive- /Zc:wchar_t /Zc:forScope /Zc:inline /Fo"X64\DEBUG\\" /Fd"X64\DEBUG\VC142.PDB" /Gd /TP /FC /DUNICODE  E:\REPO\D3D12TUT\COMMON\D3DAPP.CPP
^E:\REPO\D3D12TUT\MYDEMOS\MYDEMOS\BOXAPP.CPP
/c /I"E:\REPO\VCPKG\INSTALLED\X64-WINDOWS\INCLUDE" /ZI /JMC /nologo /W3 /WX- /diagnostics:column /sdl /Od /D _MBCS /Gm- /EHsc /RTC1 /MDd /GS /fp:precise /permissive- /Zc:wchar_t /Zc:forScope /Zc:inline /Fo"X64\DEBUG\\" /Fd"X64\DEBUG\VC142.PDB" /Gd /TP /FC /DUNICODE  E:\REPO\D3D12TUT\MYDEMOS\MYDEMOS\BOXAPP.CPP
